<svg xmlns="http://www.w3.org/2000/svg" viewBox="0 0 860.09 966.55">
  <defs>
    <style>
      .cls-1{fill:#f2f2f2;}.cls-10,.cls-2,.cls-3,.cls-7{fill:none;stroke-linecap:round;stroke-linejoin:round;}.cls-10,.cls-2{stroke:#fed892;}.cls-2{stroke-width:4.06px;}.cls-3{stroke:#fd8a6e;stroke-width:9.03px;}.cls-4{fill:#fed892;}.cls-4,.cls-5,.cls-6,.cls-8{fill-rule:evenodd;}.cls-5{fill:#6fd4df;}.cls-6,.cls-9{fill:#fd8a6e;}.cls-7{stroke:#6fd4df;stroke-width:26.35px;}.cls-8{fill:#fff;}.cls-10{stroke-width:7.87px;}
    </style>
  </defs>
  <title>headphones-colour</title>
  <g id="Layer_2" data-name="Layer 2">
    <g id="Layer_1-2" data-name="Layer 1">
      <path class="cls-1"
            d="M405.69,6.32C519.93-26.56,675.44,73.23,764.51,205.43s111.68,297,55.49,404.05C764,716.73,629.51,766.39,497.78,834.7s-260.43,155-353.45,126.13S-5.82,787.37.47,669.63c6.06-117.74,75.78-208.2,146.89-336.44C218.7,205,291.44,39.42,405.69,6.32Z"/>

      <g transform="translate(-234 198)">
      <path class="cls-8"
            d="M700.14,727a13.09,13.09,0,0,1-2.72-.29l-153-32.38c-8.76-1.85-14-12.23-11.71-23.13l73.84-348.88c2-9.51,9.48-16.69,17.36-16.69a13.16,13.16,0,0,1,2.72.29l153,32.38c8.76,1.86,14,12.23,11.71,23.13L717.5,710.32C715.49,719.83,708,727,700.14,727Z"/>
      <path class="cls-9"
            d="M623.9,300.64v10a7.93,7.93,0,0,1,1.68.18l153,32.38c6,1.27,9.56,9.15,7.86,17.21L712.61,709.28c-1.54,7.26-6.9,12.73-12.47,12.73a7.93,7.93,0,0,1-1.68-.18l-153-32.38c-3.53-.75-5.54-3.63-6.42-5.27a17.77,17.77,0,0,1-1.43-11.94l73.83-348.87c1.54-7.25,6.9-12.73,12.47-12.73v-10m0,0c-10.16,0-19.68,8.53-22.25,20.66L527.81,670.17c-2.88,13.62,4.09,26.63,15.57,29.06l153,32.39a18.44,18.44,0,0,0,3.75.39c10.16,0,19.68-8.52,22.25-20.66l73.84-348.87c2.88-13.62-4.09-26.63-15.57-29.06L627.66,301a17.87,17.87,0,0,0-3.76-.4Z"/>
      <path class="cls-6" d="M663.09,316.54l2.72,18,68.82,14.56,10.6-15.23Z"/>
      <path class="cls-10" d="M587.22,684.62l73.38,15.53"/>
    </g>

    </g>
  </g>
</svg>